…
## Where are most publications coming from?

``` r
my_data %>%ungroup %>%  group_by(country) %>% filter(!duplicated(articletitle)) %>% 
  summarize(total_pub = n()) %>% filter(total_pub>10) %>% arrange(desc(total_pub))
```

    ## # A tibble: 39 x 2
    ##    country        total_pub
    ##    <chr>              <int>
    ##  1 United States       9795
    ##  2 England             4930
    ##  3 Switzerland         2675
    ##  4 Netherlands         1649
    ##  5 Germany              957
    ##  6 China                678
    ##  7 Japan                497
    ##  8 United Kingdom       345
    ##  9 Greece               316
    ## 10 Australia            282
    ## # ... with 29 more rows
…
